{
	"info": {
		"_postman_id": "455d1c35-83f5-4af1-bd93-9de843cef81d",
		"name": "SDECAA",
		"schema": "https://schema.getpostman.com/json/collection/v2.1.0/collection.json"
	},
	"item": [
		{
			"name": "driver",
			"item": [
				{
					"name": "createDriver",
					"request": {
						"method": "POST",
						"header": [
							{
								"key": "Content-Type",
								"name": "Content-Type",
								"type": "text",
								"value": "application/json"
							}
						],
						"body": {
							"mode": "raw",
							"raw": " {\n\n\t\"email\": \"admin@uaeh.edu.mx\",\n    \"password\": \"password\",\n    \"name\":\"Luis Enrique\",\n    \"lastname1\": \"González\",\n    \"lastname2\": \"Sánchez\",\n    \"phone\": 7711102808,\n    \"age\": 25,\n    \"cp\": 43860,\n    \"street\": \"2 de Abril\",\n    \"colony\": \"Epitacio Mendoza\",\n    \"municipality\": \"Tolcayuca\",\n    \"noext\": \"10\",\n    \"noint\": \"\",\n    \"role\": \"admin\"\n}"
						},
						"url": {
							"raw": "{{base_url}}/signup/",
							"host": [
								"{{base_url}}"
							],
							"path": [
								"signup",
								""
							]
						}
					},
					"response": []
				},
				{
					"name": "getDriver",
					"request": {
						"method": "GET",
						"header": [
							{
								"key": "Content-Type",
								"type": "text",
								"value": "application/json"
							},
							{
								"key": "Authorization",
								"value": "{{token}}",
								"type": "text"
							}
						],
						"url": {
							"raw": "{{base_url}}/driver/getdriver/",
							"host": [
								"{{base_url}}"
							],
							"path": [
								"driver",
								"getdriver",
								""
							]
						}
					},
					"response": []
				},
				{
					"name": "editDriver",
					"request": {
						"method": "PUT",
						"header": [
							{
								"key": "Content-Type",
								"type": "text",
								"value": "application/json"
							},
							{
								"key": "Authorization",
								"value": "{{token}}",
								"type": "text"
							}
						],
						"body": {
							"mode": "raw",
							"raw": " {\n\n    \"name\":\"Luis Enrique2\",\n    \"lastname1\": \"González2\",\n    \"lastname2\": \"Sánchez2\",\n    \"phone\": 77111028082,\n    \"age\": 22,\n    \"cp\": 43862,\n    \"street\": \"2 de Abril2\",\n    \"colony\": \"Epitacio Mendoza2\",\n    \"municipality\": \"Tolcayuca2\",\n    \"noext\": \"12\",\n    \"noint\": \"2\"\n}"
						},
						"url": {
							"raw": "{{base_url}}/driver/edit/",
							"host": [
								"{{base_url}}"
							],
							"path": [
								"driver",
								"edit",
								""
							]
						}
					},
					"response": []
				},
				{
					"name": "deleteDriver",
					"request": {
						"method": "DELETE",
						"header": [
							{
								"key": "Content-Type",
								"type": "text",
								"value": "application/json"
							},
							{
								"key": "Authorization",
								"value": "{{token}}",
								"type": "text"
							}
						],
						"body": {
							"mode": "raw",
							"raw": ""
						},
						"url": {
							"raw": "{{base_url}}/driver/delete/",
							"host": [
								"{{base_url}}"
							],
							"path": [
								"driver",
								"delete",
								""
							]
						}
					},
					"response": []
				},
				{
					"name": "getSpecialRoutes",
					"event": [
						{
							"listen": "test",
							"script": {
								"id": "c7ef6d99-00a5-45b2-9134-6ce15cd14534",
								"exec": [
									""
								],
								"type": "text/javascript"
							}
						}
					],
					"request": {
						"method": "GET",
						"header": [
							{
								"key": "Content-Type",
								"type": "text",
								"value": "application/json"
							},
							{
								"key": "Authorization",
								"value": "{{token}}",
								"type": "text"
							}
						],
						"url": {
							"raw": "{{base_url}}/special",
							"host": [
								"{{base_url}}"
							],
							"path": [
								"special"
							]
						}
					},
					"response": []
				}
			],
			"protocolProfileBehavior": {}
		},
		{
			"name": "report",
			"item": [
				{
					"name": "createReporter",
					"request": {
						"method": "POST",
						"header": [
							{
								"key": "Content-Type",
								"name": "Content-Type",
								"type": "text",
								"value": "application/json"
							},
							{
								"key": "Authorization",
								"value": "{{token}}",
								"type": "text"
							}
						],
						"body": {
							"mode": "raw",
							"raw": " {\n\t\"velocity\": 11,\n\t\"metricUnit\": \"km/h\",\n\t\"latitud\": 19.9594,\n\t\"longitud\": -98.9246,\n\t\"x\": 0,\n\t\"y\": 0,\n\t\"z\":0\n\n}"
						},
						"url": {
							"raw": "{{base_url}}/report/create/",
							"host": [
								"{{base_url}}"
							],
							"path": [
								"report",
								"create",
								""
							]
						}
					},
					"response": []
				},
				{
					"name": "getReports",
					"request": {
						"method": "GET",
						"header": [
							{
								"key": "Content-Type",
								"type": "text",
								"value": "application/json"
							},
							{
								"key": "Authorization",
								"value": "{{token}}",
								"type": "text"
							}
						],
						"url": {
							"raw": "{{base_url}}/report/getreports/",
							"host": [
								"{{base_url}}"
							],
							"path": [
								"report",
								"getreports",
								""
							]
						}
					},
					"response": []
				},
				{
					"name": "getReport",
					"request": {
						"method": "GET",
						"header": [
							{
								"key": "Content-Type",
								"type": "text",
								"value": "application/json"
							},
							{
								"key": "Authorization",
								"value": "{{token}}",
								"type": "text"
							}
						],
						"url": {
							"raw": "{{base_url}}/report/getreport/5fc3e4909eea8bd40a04727c",
							"host": [
								"{{base_url}}"
							],
							"path": [
								"report",
								"getreport",
								"5fc3e4909eea8bd40a04727c"
							]
						}
					},
					"response": []
				},
				{
					"name": "updateReportStatus",
					"request": {
						"method": "PUT",
						"header": [
							{
								"key": "Content-Type",
								"type": "text",
								"value": "application/json"
							},
							{
								"key": "Authorization",
								"value": "{{token}}",
								"type": "text"
							}
						],
						"body": {
							"mode": "raw",
							"raw": "{\n    \"statusReport\": \"Recibido\"\n}"
						},
						"url": {
							"raw": "{{base_url}}/report/updatestatus/5fc3e4909eea8bd40a04727c",
							"host": [
								"{{base_url}}"
							],
							"path": [
								"report",
								"updatestatus",
								"5fc3e4909eea8bd40a04727c"
							]
						}
					},
					"response": []
				}
			],
			"protocolProfileBehavior": {}
		},
		{
			"name": "medical",
			"item": [
				{
					"name": "getMedical",
					"request": {
						"method": "GET",
						"header": [
							{
								"key": "Content-Type",
								"type": "text",
								"value": "application/json"
							},
							{
								"key": "Authorization",
								"value": "{{token}}",
								"type": "text"
							}
						],
						"url": {
							"raw": "{{base_url}}/medical/getmedical/",
							"host": [
								"{{base_url}}"
							],
							"path": [
								"medical",
								"getmedical",
								""
							]
						}
					},
					"response": []
				},
				{
					"name": "getMedicals",
					"request": {
						"method": "GET",
						"header": [
							{
								"key": "Content-Type",
								"type": "text",
								"value": "application/json"
							},
							{
								"key": "Authorization",
								"value": "{{token}}",
								"type": "text"
							}
						],
						"url": {
							"raw": "{{base_url}}/medical/getmedicals",
							"host": [
								"{{base_url}}"
							],
							"path": [
								"medical",
								"getmedicals"
							]
						}
					},
					"response": []
				},
				{
					"name": "createMedical",
					"request": {
						"method": "POST",
						"header": [
							{
								"key": "Content-Type",
								"name": "Content-Type",
								"type": "text",
								"value": "application/json"
							},
							{
								"key": "Authorization",
								"value": "{{token}}",
								"type": "text"
							}
						],
						"body": {
							"mode": "raw",
							"raw": " {\n\t\"tipeBlood\": \"b-\",\n    \"principalDoctor\": \"Juan Perez\",\n    \"numberDoctor\": \"7721548564\",\n    \"donor\":true\t\n\n}"
						},
						"url": {
							"raw": "{{base_url}}/medical/create",
							"host": [
								"{{base_url}}"
							],
							"path": [
								"medical",
								"create"
							]
						}
					},
					"response": []
				},
				{
					"name": "editMedical",
					"request": {
						"method": "PUT",
						"header": [
							{
								"key": "Content-Type",
								"type": "text",
								"value": "application/json"
							},
							{
								"key": "Authorization",
								"value": "{{token}}",
								"type": "text"
							}
						],
						"body": {
							"mode": "raw",
							"raw": " {\n\t\"tipeBlood\": \"a+\",\n    \"principalDoctor\": \"Juan Pereza\",\n    \"numberDoctor\": \"77215485642\",\n    \"donor\":false\t\n\n}"
						},
						"url": {
							"raw": "{{base_url}}/medical/edit/",
							"host": [
								"{{base_url}}"
							],
							"path": [
								"medical",
								"edit",
								""
							]
						}
					},
					"response": []
				}
			],
			"protocolProfileBehavior": {}
		},
		{
			"name": "vehicle",
			"item": [
				{
					"name": "getVehicle",
					"request": {
						"method": "GET",
						"header": [
							{
								"key": "Content-Type",
								"type": "text",
								"value": "application/json"
							},
							{
								"key": "Authorization",
								"value": "{{token}}",
								"type": "text"
							}
						],
						"url": {
							"raw": "{{base_url}}/vehicle/getvehicle/5fc44b9a75d1af2877564c60",
							"host": [
								"{{base_url}}"
							],
							"path": [
								"vehicle",
								"getvehicle",
								"5fc44b9a75d1af2877564c60"
							]
						}
					},
					"response": []
				},
				{
					"name": "getVehicles",
					"request": {
						"method": "GET",
						"header": [
							{
								"key": "Content-Type",
								"type": "text",
								"value": "application/json"
							},
							{
								"key": "Authorization",
								"value": "{{token}}",
								"type": "text"
							}
						],
						"url": {
							"raw": "{{base_url}}/vehicle/getvehicles/",
							"host": [
								"{{base_url}}"
							],
							"path": [
								"vehicle",
								"getvehicles",
								""
							]
						}
					},
					"response": []
				},
				{
					"name": "createVehicle",
					"request": {
						"method": "POST",
						"header": [
							{
								"key": "Content-Type",
								"name": "Content-Type",
								"type": "text",
								"value": "application/json"
							},
							{
								"key": "Authorization",
								"value": "{{token}}",
								"type": "text"
							}
						],
						"body": {
							"mode": "raw",
							"raw": "{\n    \"enrollment\": \"Matrícula\",\n    \"brand\": \"Ford\",\n    \"model\": \"Modelo\",\n    \"color\": \"color\",\n    \"year\": 2018,\n    \"country\": \"México\",\n    \"nEngine\": \"No Motor\",\n    \"nChassis\": \"VIN\"\n}"
						},
						"url": {
							"raw": "{{base_url}}/vehicle/create",
							"host": [
								"{{base_url}}"
							],
							"path": [
								"vehicle",
								"create"
							]
						}
					},
					"response": []
				},
				{
					"name": "editVehicle",
					"request": {
						"method": "PUT",
						"header": [
							{
								"key": "Content-Type",
								"type": "text",
								"value": "application/json"
							},
							{
								"key": "Authorization",
								"value": "{{token}}",
								"type": "text"
							}
						],
						"body": {
							"mode": "raw",
							"raw": "{\n    \"enrollment\": \"Matrícula\",\n    \"brand\": \"Ford\",\n    \"model\": \"Modelo\",\n    \"color\": \"color\",\n    \"year\": 2018,\n    \"country\": \"México\",\n    \"nEngine\": \"No Motor\",\n    \"nChassis\": \"VIN\"\n}"
						},
						"url": {
							"raw": "{{base_url}}/vehicle/edit/5fc3ee64d3365ade4c0e7e2b",
							"host": [
								"{{base_url}}"
							],
							"path": [
								"vehicle",
								"edit",
								"5fc3ee64d3365ade4c0e7e2b"
							]
						}
					},
					"response": []
				},
				{
					"name": "deleteVehicle",
					"request": {
						"method": "DELETE",
						"header": [
							{
								"key": "Content-Type",
								"type": "text",
								"value": "application/json"
							},
							{
								"key": "Authorization",
								"type": "text",
								"value": "{{token}}"
							}
						],
						"url": {
							"raw": "{{base_url}}/vehicle/delete/5fc3ee64d3365ade4c0e7e2b",
							"host": [
								"{{base_url}}"
							],
							"path": [
								"vehicle",
								"delete",
								"5fc3ee64d3365ade4c0e7e2b"
							]
						}
					},
					"response": []
				}
			],
			"protocolProfileBehavior": {}
		},
		{
			"name": "contact",
			"item": [
				{
					"name": "getContacts",
					"request": {
						"method": "GET",
						"header": [
							{
								"key": "Content-Type",
								"type": "text",
								"value": "application/json"
							},
							{
								"key": "Authorization",
								"value": "{{token}}",
								"type": "text"
							}
						],
						"url": {
							"raw": "{{base_url}}/contact/getcontacts/",
							"host": [
								"{{base_url}}"
							],
							"path": [
								"contact",
								"getcontacts",
								""
							]
						}
					},
					"response": []
				},
				{
					"name": "createContact",
					"request": {
						"method": "POST",
						"header": [
							{
								"key": "Content-Type",
								"name": "Content-Type",
								"type": "text",
								"value": "application/json"
							},
							{
								"key": "Authorization",
								"value": "{{token}}",
								"type": "text"
							}
						],
						"body": {
							"mode": "raw",
							"raw": " {\n\t\n\t\"name\": \"Esmeralda\",\n\t\"appat\": \"Henandez \",\n    \"amat\": \"Reyes\",\n\t\"phone\":7711545341,\n\t\"email\": \"correro@uaeh.edu.mx\",\n\t\"cp\": 4800,\n\t\"calle\": \"Calle\",\n\t\"colony\":\"colony\",\n\t\"municipality\":\"municipality\",\n    \"noext\": \"10\",\n    \"noint\": \"1b\"\n\n}"
						},
						"url": {
							"raw": "{{base_url}}/contact/create",
							"host": [
								"{{base_url}}"
							],
							"path": [
								"contact",
								"create"
							]
						}
					},
					"response": []
				},
				{
					"name": "getContact",
					"request": {
						"method": "GET",
						"header": [
							{
								"key": "Content-Type",
								"type": "text",
								"value": "application/json"
							},
							{
								"key": "Authorization",
								"value": "{{token}}",
								"type": "text"
							}
						],
						"url": {
							"raw": "{{base_url}}/contact/getcontact/5fbb4e0cad1e90521d1ae14f",
							"host": [
								"{{base_url}}"
							],
							"path": [
								"contact",
								"getcontact",
								"5fbb4e0cad1e90521d1ae14f"
							]
						}
					},
					"response": []
				},
				{
					"name": "editContact",
					"request": {
						"method": "PUT",
						"header": [
							{
								"key": "Content-Type",
								"type": "text",
								"value": "application/json"
							},
							{
								"key": "Authorization",
								"value": "{{token}}",
								"type": "text"
							}
						],
						"body": {
							"mode": "raw",
							"raw": " {\n\t\"enrollment\": \"Matrícula2\",\n\t\"brand\": \"Ford2\",\n\t\"model\":\"Modelo2\",\n\t\"color\": \"color2\",\n\t\"year\": 20182,\n\t\"country\": \"México2\",\n\t\"nEngine\":\"No Motor2\",\n\t\"nChassis\":\"VIN2\"\n\n}"
						},
						"url": {
							"raw": "{{base_url}}/contact/edit/5fbb4e0cad1e90521d1ae14f",
							"host": [
								"{{base_url}}"
							],
							"path": [
								"contact",
								"edit",
								"5fbb4e0cad1e90521d1ae14f"
							]
						}
					},
					"response": []
				},
				{
					"name": "deleteContact",
					"request": {
						"method": "DELETE",
						"header": [
							{
								"key": "Content-Type",
								"type": "text",
								"value": "application/json"
							},
							{
								"key": "Authorization",
								"type": "text",
								"value": "{{token}}"
							}
						],
						"url": {
							"raw": "{{base_url}}/contact/delete/5fbb563acf03db5b3fe709a0",
							"host": [
								"{{base_url}}"
							],
							"path": [
								"contact",
								"delete",
								"5fbb563acf03db5b3fe709a0"
							]
						}
					},
					"response": []
				}
			],
			"protocolProfileBehavior": {}
		},
		{
			"name": "admin",
			"item": [
				{
					"name": "getDrivers",
					"request": {
						"method": "GET",
						"header": [
							{
								"key": "Content-Type",
								"value": "application/json",
								"type": "text"
							},
							{
								"key": "Authorization",
								"value": "{{token}}",
								"type": "text"
							}
						],
						"url": {
							"raw": "{{base_url}}/admin/getdrivers/",
							"host": [
								"{{base_url}}"
							],
							"path": [
								"admin",
								"getdrivers",
								""
							]
						}
					},
					"response": []
				}
			],
			"protocolProfileBehavior": {}
		},
		{
			"name": "surgery",
			"item": [
				{
					"name": "getSurgeries",
					"request": {
						"method": "GET",
						"header": [
							{
								"key": "Content-Type",
								"type": "text",
								"value": "application/json"
							},
							{
								"key": "Authorization",
								"type": "text",
								"value": "{{token}}"
							}
						],
						"url": {
							"raw": "{{base_url}}/surgery/surgeries",
							"host": [
								"{{base_url}}"
							],
							"path": [
								"surgery",
								"surgeries"
							]
						}
					},
					"response": []
				},
				{
					"name": "getSurgery",
					"request": {
						"method": "GET",
						"header": [
							{
								"key": "Content-Type",
								"type": "text",
								"value": "application/json"
							},
							{
								"key": "Authorization",
								"type": "text",
								"value": "{{token}}"
							}
						],
						"url": {
							"raw": "{{base_url}}/surgery/getsurgery/5fbc89eec4226c36e8f7cd68",
							"host": [
								"{{base_url}}"
							],
							"path": [
								"surgery",
								"getsurgery",
								"5fbc89eec4226c36e8f7cd68"
							]
						}
					},
					"response": []
				},
				{
					"name": "createSurgery",
					"request": {
						"method": "POST",
						"header": [
							{
								"key": "Content-Type",
								"name": "Content-Type",
								"type": "text",
								"value": "application/json"
							},
							{
								"key": "Authorization",
								"type": "text",
								"value": "{{token}}"
							}
						],
						"body": {
							"mode": "raw",
							"raw": " {\n\t\"surgery\": \"Vesicula\",\n    \"date\": \"02/09/2020\",\n    \"cares\": \"Ninguno\"\n}"
						},
						"url": {
							"raw": "{{base_url}}/surgery/create",
							"host": [
								"{{base_url}}"
							],
							"path": [
								"surgery",
								"create"
							]
						}
					},
					"response": []
				},
				{
					"name": "editSurgery",
					"request": {
						"method": "PUT",
						"header": [
							{
								"key": "Content-Type",
								"type": "text",
								"value": "application/json"
							},
							{
								"key": "Authorization",
								"type": "text",
								"value": "{{token}}"
							}
						],
						"body": {
							"mode": "raw",
							"raw": "{\n    \"surgery\": \"Apendice2\",\n    \"date\": \"23/06/2018\",\n    \"cares\": \"Ninguno2\"\n}"
						},
						"url": {
							"raw": "{{base_url}}/surgery/edit/5fbc89eec4226c36e8f7cd68",
							"host": [
								"{{base_url}}"
							],
							"path": [
								"surgery",
								"edit",
								"5fbc89eec4226c36e8f7cd68"
							]
						}
					},
					"response": []
				},
				{
					"name": "deleteSurgery",
					"request": {
						"method": "DELETE",
						"header": [
							{
								"key": "Content-Type",
								"type": "text",
								"value": "application/json"
							},
							{
								"key": "Authorization",
								"type": "text",
								"value": "{{token}}"
							}
						],
						"url": {
							"raw": "{{base_url}}/surgery/delete/5fbc8e7178ae013aa7428aa9",
							"host": [
								"{{base_url}}"
							],
							"path": [
								"surgery",
								"delete",
								"5fbc8e7178ae013aa7428aa9"
							]
						}
					},
					"response": []
				}
			],
			"protocolProfileBehavior": {}
		},
		{
			"name": "transplant",
			"item": [
				{
					"name": "getTransplants",
					"request": {
						"method": "GET",
						"header": [
							{
								"key": "Content-Type",
								"type": "text",
								"value": "application/json"
							},
							{
								"key": "Authorization",
								"type": "text",
								"value": "{{token}}"
							}
						],
						"url": {
							"raw": "{{base_url}}/transplant/get",
							"host": [
								"{{base_url}}"
							],
							"path": [
								"transplant",
								"get"
							]
						}
					},
					"response": []
				},
				{
					"name": "getTransplant",
					"request": {
						"method": "GET",
						"header": [
							{
								"key": "Content-Type",
								"type": "text",
								"value": "application/json"
							},
							{
								"key": "Authorization",
								"type": "text",
								"value": "{{token}}"
							}
						],
						"url": {
							"raw": "{{base_url}}/transplant/get/5fbc9b7dd3c618452769ee30",
							"host": [
								"{{base_url}}"
							],
							"path": [
								"transplant",
								"get",
								"5fbc9b7dd3c618452769ee30"
							]
						}
					},
					"response": []
				},
				{
					"name": "createTransplant",
					"request": {
						"method": "POST",
						"header": [
							{
								"key": "Content-Type",
								"name": "Content-Type",
								"type": "text",
								"value": "application/json"
							},
							{
								"key": "Authorization",
								"type": "text",
								"value": "{{token}}"
							}
						],
						"body": {
							"mode": "raw",
							"raw": "{\n    \"transplant\": \"corazón\",\n    \"date\": \"02/09/2020\",\n    \"cares\": \"Ninguno\"\n}"
						},
						"url": {
							"raw": "{{base_url}}/transplant/create",
							"host": [
								"{{base_url}}"
							],
							"path": [
								"transplant",
								"create"
							]
						}
					},
					"response": []
				},
				{
					"name": "editTransplant",
					"request": {
						"method": "PUT",
						"header": [
							{
								"key": "Content-Type",
								"type": "text",
								"value": "application/json"
							},
							{
								"key": "Authorization",
								"type": "text",
								"value": "{{token}}"
							}
						],
						"body": {
							"mode": "raw",
							"raw": "{\n    \"transplant\": \"corazón2\",\n    \"date\": \"02/09/2022\",\n    \"cares\": \"Ninguno2\"\n}"
						},
						"url": {
							"raw": "{{base_url}}/transplant/edit/5fbc9b7dd3c618452769ee30",
							"host": [
								"{{base_url}}"
							],
							"path": [
								"transplant",
								"edit",
								"5fbc9b7dd3c618452769ee30"
							]
						}
					},
					"response": []
				},
				{
					"name": "deleteTransplant",
					"request": {
						"method": "DELETE",
						"header": [
							{
								"key": "Content-Type",
								"type": "text",
								"value": "application/json"
							},
							{
								"key": "Authorization",
								"type": "text",
								"value": "{{token}}"
							}
						],
						"url": {
							"raw": "{{base_url}}/transplant/delete/5fbc9b7dd3c618452769ee30",
							"host": [
								"{{base_url}}"
							],
							"path": [
								"transplant",
								"delete",
								"5fbc9b7dd3c618452769ee30"
							]
						}
					},
					"response": []
				}
			],
			"protocolProfileBehavior": {}
		},
		{
			"name": "disease",
			"item": [
				{
					"name": "getDiseases",
					"request": {
						"method": "GET",
						"header": [
							{
								"key": "Content-Type",
								"type": "text",
								"value": "application/json"
							},
							{
								"key": "Authorization",
								"type": "text",
								"value": "{{token}}"
							}
						],
						"url": {
							"raw": "{{base_url}}/disease/get",
							"host": [
								"{{base_url}}"
							],
							"path": [
								"disease",
								"get"
							]
						}
					},
					"response": []
				},
				{
					"name": "getDisease",
					"request": {
						"method": "GET",
						"header": [
							{
								"key": "Content-Type",
								"type": "text",
								"value": "application/json"
							},
							{
								"key": "Authorization",
								"type": "text",
								"value": "{{token}}"
							}
						],
						"url": {
							"raw": "{{base_url}}/disease/get/5fbca08cd3a5544a93c82f49",
							"host": [
								"{{base_url}}"
							],
							"path": [
								"disease",
								"get",
								"5fbca08cd3a5544a93c82f49"
							]
						}
					},
					"response": []
				},
				{
					"name": "createDisease",
					"request": {
						"method": "POST",
						"header": [
							{
								"key": "Content-Type",
								"name": "Content-Type",
								"type": "text",
								"value": "application/json"
							},
							{
								"key": "Authorization",
								"type": "text",
								"value": "{{token}}"
							}
						],
						"body": {
							"mode": "raw",
							"raw": "{\n    \"disease\": \"Covid-20\",\n    \"treatment\": \"Ninguno\"\n}"
						},
						"url": {
							"raw": "{{base_url}}/disease/create",
							"host": [
								"{{base_url}}"
							],
							"path": [
								"disease",
								"create"
							]
						}
					},
					"response": []
				},
				{
					"name": "editDisease",
					"request": {
						"method": "PUT",
						"header": [
							{
								"key": "Content-Type",
								"type": "text",
								"value": "application/json"
							},
							{
								"key": "Authorization",
								"type": "text",
								"value": "{{token}}"
							}
						],
						"body": {
							"mode": "raw",
							"raw": "{\n    \"disease\": \"Covid-19\",\n    \"treatment\": \"Ninguno2\"\n}"
						},
						"url": {
							"raw": "{{base_url}}/disease/edit/5fbca08cd3a5544a93c82f49",
							"host": [
								"{{base_url}}"
							],
							"path": [
								"disease",
								"edit",
								"5fbca08cd3a5544a93c82f49"
							]
						}
					},
					"response": []
				},
				{
					"name": "deleteTransplant",
					"request": {
						"method": "DELETE",
						"header": [
							{
								"key": "Content-Type",
								"type": "text",
								"value": "application/json"
							},
							{
								"key": "Authorization",
								"type": "text",
								"value": "{{token}}"
							}
						],
						"url": {
							"raw": "{{base_url}}/disease/delete/5fbca08bd3a5544a93c82f48",
							"host": [
								"{{base_url}}"
							],
							"path": [
								"disease",
								"delete",
								"5fbca08bd3a5544a93c82f48"
							]
						}
					},
					"response": []
				}
			],
			"protocolProfileBehavior": {}
		},
		{
			"name": "fotosVehicle",
			"item": [
				{
					"name": "uploadFoto",
					"request": {
						"method": "POST",
						"header": [
							{
								"key": "Content-Type",
								"name": "Content-Type",
								"type": "text",
								"value": "application/json"
							},
							{
								"key": "Authorization",
								"type": "text",
								"value": "{{token}}"
							}
						],
						"body": {
							"mode": "formdata",
							"formdata": [
								{
									"key": "idVehicle",
									"value": "5fc44b9a75d1af2877564c60",
									"type": "text"
								},
								{
									"key": "image",
									"type": "file",
									"src": "/home/kike/Imágenes/10-10.jpg"
								}
							]
						},
						"url": {
							"raw": "{{base_url}}/vehicle/uploadfoto",
							"host": [
								"{{base_url}}"
							],
							"path": [
								"vehicle",
								"uploadfoto"
							],
							"query": [
								{
									"key": "idVehiculo",
									"value": "1234",
									"disabled": true
								}
							]
						}
					},
					"response": []
				},
				{
					"name": "getFotos",
					"request": {
						"method": "GET",
						"header": [
							{
								"key": "Content-Type",
								"type": "text",
								"value": "application/json"
							},
							{
								"key": "Authorization",
								"type": "text",
								"value": "{{token}}"
							}
						],
						"url": {
							"raw": "{{base_url}}/vehicle/getfotos/5fc44b9a75d1af2877564c60",
							"host": [
								"{{base_url}}"
							],
							"path": [
								"vehicle",
								"getfotos",
								"5fc44b9a75d1af2877564c60"
							]
						}
					},
					"response": []
				},
				{
					"name": "deleteFotosVehicle",
					"request": {
						"method": "DELETE",
						"header": [
							{
								"key": "Content-Type",
								"type": "text",
								"value": "application/json"
							},
							{
								"key": "Authorization",
								"type": "text",
								"value": "{{token}}"
							}
						],
						"url": {
							"raw": "{{base_url}}/vehicle/deletefotos/5fc44bda75d1af2877564c61",
							"host": [
								"{{base_url}}"
							],
							"path": [
								"vehicle",
								"deletefotos",
								"5fc44bda75d1af2877564c61"
							]
						}
					},
					"response": []
				}
			],
			"protocolProfileBehavior": {}
		},
		{
			"name": "login",
			"event": [
				{
					"listen": "test",
					"script": {
						"id": "348d54a2-d985-4d7d-8625-eb3e0966b79e",
						"exec": [
							"var json = JSON.parse(responseBody);",
							"// var data = json.data;",
							"",
							"var token = json ? json.token : null;",
							"",
							"if (token) {",
							"    postman.setEnvironmentVariable(\"token\",\"Bearer \"+token);",
							"}",
							"",
							"tests.token = token;"
						],
						"type": "text/javascript"
					}
				}
			],
			"request": {
				"method": "POST",
				"header": [
					{
						"key": "Content-Type",
						"value": "application/json",
						"type": "text"
					}
				],
				"body": {
					"mode": "raw",
					"raw": "{\n    \"email\": \"admin@uaeh.edu.mx\",\n    \"password\": \"password\"\n}",
					"options": {
						"raw": {
							"language": "json"
						}
					}
				},
				"url": {
					"raw": "{{base_url}}/signin/",
					"host": [
						"{{base_url}}"
					],
					"path": [
						"signin",
						""
					]
				}
			},
			"response": []
		}
	],
	"variable": [
		{
			"id": "1f090987-ce26-41c1-9162-55e542235a85",
			"key": "{{base_url}}",
			"value": "",
			"type": "string"
		},
		{
			"id": "3e3661a0-87e9-4eff-a350-3fc65fd3dfcb",
			"key": "{{port}}",
			"value": "",
			"type": "string"
		},
		{
			"id": "2a97b011-6732-4a44-b91d-f211d893b7a6",
			"key": "{{api}}",
			"value": "",
			"type": "string"
		}
	],
	"protocolProfileBehavior": {}
}