{
	"id": "bc71ef7a-9665-40de-bf1d-1b36d9cb45c5",
	"name": "SDECAAenv",
	"values": [
		{
			"key": "port",
			"value": "3000",
			"enabled": true
		},
		{
			"key": "version",
			"value": "api",
			"enabled": true
		},
		{
			"key": "protocol",
			"value": "http",
			"enabled": true
		},
		{
			"key": "host",
			"value": "localhost",
			"enabled": true
		},
		{
			"key": "base_url",
			"value": "{{protocol}}://{{host}}:{{port}}/{{version}}",
			"enabled": true
		},
		{
			"key": "token",
			"value": "Bearer eyJhbGciOiJIUzI1NiIsInR5cCI6IkpXVCJ9.eyJpZCI6IjVmYjllY2Y2NmNhYzQzNDg5MzM2NTQwMCIsImVtYWlsIjoiZ28zMzQ1MDZAdWFlaC5lZHUubXgiLCJpYXQiOjE2MDYwNzcwNjUsImV4cCI6MTYwNjE2MzQ2NX0.l56H-QhaghKTrqH91ybD-TEwkO0BNs8tS6Ojzo1JE38",
			"enabled": true
		}
	],
	"_postman_variable_scope": "environment",
	"_postman_exported_at": "2020-11-22T21:34:39.723Z",
	"_postman_exported_using": "Postman/7.36.0"
}